…
    ## using cached file: C:\Users\arunp\AppData\Local\cache/R/noaa_ghcnd/USS0023B17S.dly

    ## date created (size, mb): 2020-10-03 16:57:29 (0.882)

    ## file min/max dates: 1999-09-01 / 2020-10-31

group\_by name and month

``` r
weather_df %>%
  group_by(name, month)
```

    ## # A tibble: 1,095 x 7
    ## # Groups:   name, month [36]
    ##    name           id          date        prcp  tmax  tmin month     
    ##    <chr>          <chr>       <date>     <dbl> <dbl> <dbl> <date>    
    ##  1 CentralPark_NY USW00094728 2017-01-01     0   8.9   4.4 2017-01-01
    ##  2 CentralPark_NY USW00094728 2017-01-02    53   5     2.8 2017-01-01
    ##  3 CentralPark_NY USW00094728 2017-01-03   147   6.1   3.9 2017-01-01
    ##  4 CentralPark_NY USW00094728 2017-01-04     0  11.1   1.1 2017-01-01
    ##  5 CentralPark_NY USW00094728 2017-01-05     0   1.1  -2.7 2017-01-01
    ##  6 CentralPark_NY USW00094728 2017-01-06    13   0.6  -3.8 2017-01-01
    ##  7 CentralPark_NY USW00094728 2017-01-07    81  -3.2  -6.6 2017-01-01
    ##  8 CentralPark_NY USW00094728 2017-01-08     0  -3.8  -8.8 2017-01-01
    ##  9 CentralPark_NY USW00094728 2017-01-09     0  -4.9  -9.9 2017-01-01
    ## 10 CentralPark_NY USW00094728 2017-01-10     0   7.8  -6   2017-01-01
    ## # ... with 1,085 more rows
…
Group and summarize by two variables

``` r
weather_df %>%
  group_by(name, month) %>%
  summarize(n_obs = n())
```

    ## `summarise()` regrouping output by 'name' (override with `.groups` argument)

    ## # A tibble: 36 x 3
    ## # Groups:   name [3]
    ##    name           month      n_obs
    ##    <chr>          <date>     <int>
    ##  1 CentralPark_NY 2017-01-01    31
    ##  2 CentralPark_NY 2017-02-01    28
    ##  3 CentralPark_NY 2017-03-01    31
    ##  4 CentralPark_NY 2017-04-01    30
    ##  5 CentralPark_NY 2017-05-01    31
    ##  6 CentralPark_NY 2017-06-01    30
    ##  7 CentralPark_NY 2017-07-01    31
    ##  8 CentralPark_NY 2017-08-01    31
    ##  9 CentralPark_NY 2017-09-01    30
    ## 10 CentralPark_NY 2017-10-01    31
    ## # ... with 26 more rows
…
Summaries with 2 variables.

``` r
weather_df %>%
  group_by(name, month) %>%
  summarize(
    mean_tmax = mean(tmax),
    median_tmax = median(tmax))
```

    ## `summarise()` regrouping output by 'name' (override with `.groups` argument)

    ## # A tibble: 36 x 4
    ## # Groups:   name [3]
    ##    name           month      mean_tmax median_tmax
    ##    <chr>          <date>         <dbl>       <dbl>
    ##  1 CentralPark_NY 2017-01-01      5.98         6.1
    ##  2 CentralPark_NY 2017-02-01      9.28         8.3
    ##  3 CentralPark_NY 2017-03-01      8.22         8.3
    ##  4 CentralPark_NY 2017-04-01     18.3         18.3
    ##  5 CentralPark_NY 2017-05-01     20.1         19.4
    ##  6 CentralPark_NY 2017-06-01     26.3         27.2
    ##  7 CentralPark_NY 2017-07-01     28.7         29.4
    ##  8 CentralPark_NY 2017-08-01     27.2         27.2
    ##  9 CentralPark_NY 2017-09-01     25.4         26.1
    ## 10 CentralPark_NY 2017-10-01     21.8         22.2
    ## # ... with 26 more rows

Summarize multiple columns with “across”.

``` r
weather_df %>%
  group_by(name, month) %>%
  summarize(across(tmin:prcp, mean))
```

    ## `summarise()` regrouping output by 'name' (override with `.groups` argument)

    ## # A tibble: 36 x 5
    ## # Groups:   name [3]
    ##    name           month        tmin  tmax  prcp
    ##    <chr>          <date>      <dbl> <dbl> <dbl>
    ##  1 CentralPark_NY 2017-01-01  0.748  5.98  39.5
    ##  2 CentralPark_NY 2017-02-01  1.45   9.28  22.5
    ##  3 CentralPark_NY 2017-03-01 -0.177  8.22  43.0
    ##  4 CentralPark_NY 2017-04-01  9.66  18.3   32.5
    ##  5 CentralPark_NY 2017-05-01 12.2   20.1   52.3
    ##  6 CentralPark_NY 2017-06-01 18.2   26.3   40.4
    ##  7 CentralPark_NY 2017-07-01 21.0   28.7   34.3
    ##  8 CentralPark_NY 2017-08-01 19.5   27.2   27.4
    ##  9 CentralPark_NY 2017-09-01 17.4   25.4   17.0
    ## 10 CentralPark_NY 2017-10-01 13.9   21.8   34.3
    ## # ... with 26 more rows
…
    ## Warning: Removed 3 rows containing missing values (geom_point).

<img src="expo_analysis_module3_files/figure-gfm/unnamed-chunk-14-1.png" width="90%" />

Window functions: Ranking

``` r
weather_df %>%
  group_by(name, month) %>%
  mutate(temp_ranking = min_rank(tmax)) # to get max temp within month
```

    ## # A tibble: 1,095 x 8
    ## # Groups:   name, month [36]
    ##    name          id         date        prcp  tmax  tmin month      temp_ranking
    ##    <chr>         <chr>      <date>     <dbl> <dbl> <dbl> <date>            <int>
    ##  1 CentralPark_~ USW000947~ 2017-01-01     0   8.9   4.4 2017-01-01           22
    ##  2 CentralPark_~ USW000947~ 2017-01-02    53   5     2.8 2017-01-01           12
    ##  3 CentralPark_~ USW000947~ 2017-01-03   147   6.1   3.9 2017-01-01           15
    ##  4 CentralPark_~ USW000947~ 2017-01-04     0  11.1   1.1 2017-01-01           27
    ##  5 CentralPark_~ USW000947~ 2017-01-05     0   1.1  -2.7 2017-01-01            5
    ##  6 CentralPark_~ USW000947~ 2017-01-06    13   0.6  -3.8 2017-01-01            4
    ##  7 CentralPark_~ USW000947~ 2017-01-07    81  -3.2  -6.6 2017-01-01            3
    ##  8 CentralPark_~ USW000947~ 2017-01-08     0  -3.8  -8.8 2017-01-01            2
    ##  9 CentralPark_~ USW000947~ 2017-01-09     0  -4.9  -9.9 2017-01-01            1
    ## 10 CentralPark_~ USW000947~ 2017-01-10     0   7.8  -6   2017-01-01           21
    ## # ... with 1,085 more rows

``` r
#day with the lowest max temperature within each month:
weather_df %>%
  group_by(name, month) %>%
  filter(min_rank(tmax) < 2)
```

    ## # A tibble: 42 x 7
    ## # Groups:   name, month [36]
    ##    name           id          date        prcp  tmax  tmin month     
    ##    <chr>          <chr>       <date>     <dbl> <dbl> <dbl> <date>    
    ##  1 CentralPark_NY USW00094728 2017-01-09     0  -4.9  -9.9 2017-01-01
    ##  2 CentralPark_NY USW00094728 2017-02-10     0   0    -7.1 2017-02-01
    ##  3 CentralPark_NY USW00094728 2017-03-15     0  -3.2  -6.6 2017-03-01
    ##  4 CentralPark_NY USW00094728 2017-04-01     0   8.9   2.8 2017-04-01
    ##  5 CentralPark_NY USW00094728 2017-05-13   409  11.7   7.2 2017-05-01
    ##  6 CentralPark_NY USW00094728 2017-06-06    15  14.4  11.1 2017-06-01
    ##  7 CentralPark_NY USW00094728 2017-07-25     0  21.7  16.7 2017-07-01
    ##  8 CentralPark_NY USW00094728 2017-08-29    74  20    16.1 2017-08-01
    ##  9 CentralPark_NY USW00094728 2017-09-30     0  18.9  12.2 2017-09-01
    ## 10 CentralPark_NY USW00094728 2017-10-31     0  13.9   7.2 2017-10-01
    ## # ... with 32 more rows

``` r
#three days with the highest max temperature:
weather_df %>%
  group_by(name, month) %>%
  filter(min_rank(desc(tmax)) < 4)
```

    ## # A tibble: 149 x 7
    ## # Groups:   name, month [36]
    ##    name           id          date        prcp  tmax  tmin month     
    ##    <chr>          <chr>       <date>     <dbl> <dbl> <dbl> <date>    
    ##  1 CentralPark_NY USW00094728 2017-01-12    13  18.9   8.3 2017-01-01
    ##  2 CentralPark_NY USW00094728 2017-01-13     0  16.7   0   2017-01-01
    ##  3 CentralPark_NY USW00094728 2017-01-26     5  13.3   6.1 2017-01-01
    ##  4 CentralPark_NY USW00094728 2017-02-19     0  18.3  11.7 2017-02-01
    ##  5 CentralPark_NY USW00094728 2017-02-23     0  18.3   6.7 2017-02-01
    ##  6 CentralPark_NY USW00094728 2017-02-24     0  21.1  14.4 2017-02-01
    ##  7 CentralPark_NY USW00094728 2017-03-01    30  21.1  12.2 2017-03-01
    ##  8 CentralPark_NY USW00094728 2017-03-02     0  17.8   1.7 2017-03-01
    ##  9 CentralPark_NY USW00094728 2017-03-25     3  16.7   5.6 2017-03-01
    ## 10 CentralPark_NY USW00094728 2017-04-16     0  30.6  15   2017-04-01
    ## # ... with 139 more rows

Offsets:e.g. to find the day-by-day change in max temp within each
station over the year.

``` r
weather_df %>%
  group_by(name) %>%
  mutate(temp_change = tmax - lag(tmax)) # gives temp change from previous day
```

    ## # A tibble: 1,095 x 8
    ## # Groups:   name [3]
    ##    name           id         date        prcp  tmax  tmin month      temp_change
    ##    <chr>          <chr>      <date>     <dbl> <dbl> <dbl> <date>           <dbl>
    ##  1 CentralPark_NY USW000947~ 2017-01-01     0   8.9   4.4 2017-01-01      NA    
    ##  2 CentralPark_NY USW000947~ 2017-01-02    53   5     2.8 2017-01-01      -3.9  
    ##  3 CentralPark_NY USW000947~ 2017-01-03   147   6.1   3.9 2017-01-01       1.10 
    ##  4 CentralPark_NY USW000947~ 2017-01-04     0  11.1   1.1 2017-01-01       5    
    ##  5 CentralPark_NY USW000947~ 2017-01-05     0   1.1  -2.7 2017-01-01     -10    
    ##  6 CentralPark_NY USW000947~ 2017-01-06    13   0.6  -3.8 2017-01-01      -0.5  
    ##  7 CentralPark_NY USW000947~ 2017-01-07    81  -3.2  -6.6 2017-01-01      -3.8  
    ##  8 CentralPark_NY USW000947~ 2017-01-08     0  -3.8  -8.8 2017-01-01      -0.600
    ##  9 CentralPark_NY USW000947~ 2017-01-09     0  -4.9  -9.9 2017-01-01      -1.1  
    ## 10 CentralPark_NY USW000947~ 2017-01-10     0   7.8  -6   2017-01-01      12.7  
    ## # ... with 1,085 more rows
…
